﻿<root dataType="Struct" type="Duality.Resources.Scene" id="129723834">
  <assetInfo />
  <globalGravity dataType="Struct" type="Duality.Vector2">
    <X dataType="Float">0</X>
    <Y dataType="Float">33</Y>
  </globalGravity>
  <serializeObj dataType="Array" type="Duality.GameObject[]" id="427169525">
    <item dataType="Struct" type="Duality.GameObject" id="3900796147">
      <active dataType="Bool">true</active>
      <children />
      <compList dataType="Struct" type="System.Collections.Generic.List`1[[Duality.Component]]" id="963132993">
        <_items dataType="Array" type="Duality.Component[]" id="3425234350" length="0" />
        <_size dataType="Int">0</_size>
        <_version dataType="Int">0</_version>
      </compList>
      <compMap dataType="Struct" type="System.Collections.Generic.Dictionary`2[[System.Type],[Duality.Component]]" id="1346981344" surrogate="true">
        <header />
        <body>
          <keys dataType="Array" type="System.Object[]" id="1078740875" length="0" />
          <values dataType="Array" type="System.Object[]" id="2869779144" length="0" />
        </body>
      </compMap>
      <compTransform />
      <identifier dataType="Struct" type="System.Guid" surrogate="true">
        <header>
          <data dataType="Array" type="System.Byte[]" id="1344687425">BieWNhedP0u6HEMrX96Ryg==</data>
        </header>
        <body />
      </identifier>
      <initState dataType="Enum" type="Duality.InitState" name="Initialized" value="1" />
      <name dataType="String">GameObject</name>
      <parent />
      <prefabLink />
    </item>
  </serializeObj>
  <visibilityStrategy dataType="Struct" type="Duality.Components.DefaultRendererVisibilityStrategy" id="2035693768" />
</root>
<!-- XmlFormatterBase Document Separator -->
