﻿<root dataType="Struct" type="Duality.Resources.Scene" id="129723834">
  <assetInfo />
  <globalGravity dataType="Struct" type="Duality.Vector2">
    <X dataType="Float">0</X>
    <Y dataType="Float">33</Y>
  </globalGravity>
  <serializeObj dataType="Array" type="Duality.GameObject[]" id="427169525">
    <item dataType="Struct" type="Duality.GameObject" id="3572145188">
      <active dataType="Bool">true</active>
      <children />
      <compList dataType="Struct" type="System.Collections.Generic.List`1[[Duality.Component]]" id="3139524506">
        <_items dataType="Array" type="Duality.Component[]" id="721004416" length="4">
          <item />
        </_items>
        <_size dataType="Int">1</_size>
        <_version dataType="Int">5</_version>
      </compList>
      <compMap dataType="Struct" type="System.Collections.Generic.Dictionary`2[[System.Type],[Duality.Component]]" id="3759998778" surrogate="true">
        <header />
        <body>
          <keys dataType="Array" type="System.Object[]" id="652162528">
            <item dataType="Type" id="1484534748" value="ClassLibrary1.SignalRServer" />
          </keys>
          <values dataType="Array" type="System.Object[]" id="2964503438">
            <item dataType="ObjectRef">2999461761</item>
          </values>
        </body>
      </compMap>
      <compTransform />
      <identifier dataType="Struct" type="System.Guid" surrogate="true">
        <header>
          <data dataType="Array" type="System.Byte[]" id="837796092">8dFfvLXB1U2pTKnnNJTGAA==</data>
        </header>
        <body />
      </identifier>
      <initState dataType="Enum" type="Duality.InitState" name="Initialized" value="1" />
      <name dataType="String">GameObject</name>
      <parent />
      <prefabLink />
    </item>
  </serializeObj>
  <visibilityStrategy dataType="Struct" type="Duality.Components.DefaultRendererVisibilityStrategy" id="2035693768" />
</root>
<!-- XmlFormatterBase Document Separator -->
