﻿<root dataType="Struct" type="Duality.Resources.Scene" id="129723834">
  <assetInfo />
  <globalGravity dataType="Struct" type="Duality.Vector2">
    <X dataType="Float">0</X>
    <Y dataType="Float">33</Y>
  </globalGravity>
  <serializeObj dataType="Array" type="Duality.GameObject[]" id="427169525">
    <item dataType="Struct" type="Duality.GameObject" id="952508944">
      <active dataType="Bool">true</active>
      <children />
      <compList dataType="Struct" type="System.Collections.Generic.List`1[[Duality.Component]]" id="150869302">
        <_items dataType="Array" type="Duality.Component[]" id="2196181856" length="4">
          <item dataType="Struct" type="Duality.Components.Transform" id="3312823876">
            <active dataType="Bool">true</active>
            <angle dataType="Float">0</angle>
            <angleAbs dataType="Float">0</angleAbs>
            <angleVel dataType="Float">0</angleVel>
            <angleVelAbs dataType="Float">0</angleVelAbs>
            <deriveAngle dataType="Bool">true</deriveAngle>
            <gameobj dataType="ObjectRef">952508944</gameobj>
            <ignoreParent dataType="Bool">false</ignoreParent>
            <parentTransform />
            <pos dataType="Struct" type="Duality.Vector3">
              <X dataType="Float">0</X>
              <Y dataType="Float">0</Y>
              <Z dataType="Float">-500</Z>
            </pos>
            <posAbs dataType="Struct" type="Duality.Vector3">
              <X dataType="Float">0</X>
              <Y dataType="Float">0</Y>
              <Z dataType="Float">-500</Z>
            </posAbs>
            <scale dataType="Float">1</scale>
            <scaleAbs dataType="Float">1</scaleAbs>
            <vel dataType="Struct" type="Duality.Vector3" />
            <velAbs dataType="Struct" type="Duality.Vector3" />
          </item>
          <item dataType="Struct" type="Duality.Components.Camera" id="1489784751">
            <active dataType="Bool">true</active>
            <farZ dataType="Float">10000</farZ>
            <focusDist dataType="Float">500</focusDist>
            <gameobj dataType="ObjectRef">952508944</gameobj>
            <nearZ dataType="Float">0</nearZ>
            <passes dataType="Struct" type="System.Collections.Generic.List`1[[Duality.Components.Camera+Pass]]" id="3374768619">
              <_items dataType="Array" type="Duality.Components.Camera+Pass[]" id="1975069302" length="4">
                <item dataType="Struct" type="Duality.Components.Camera+Pass" id="1694599136">
                  <clearColor dataType="Struct" type="Duality.Drawing.ColorRgba" />
                  <clearDepth dataType="Float">1</clearDepth>
                  <clearFlags dataType="Enum" type="Duality.Drawing.ClearFlag" name="All" value="3" />
                  <input />
                  <matrixMode dataType="Enum" type="Duality.Drawing.RenderMatrix" name="PerspectiveWorld" value="0" />
                  <output dataType="Struct" type="Duality.ContentRef`1[[Duality.Resources.RenderTarget]]" />
                  <visibilityMask dataType="Enum" type="Duality.Drawing.VisibilityFlag" name="AllGroups" value="2147483647" />
                </item>
                <item dataType="Struct" type="Duality.Components.Camera+Pass" id="3588486030">
                  <clearColor dataType="Struct" type="Duality.Drawing.ColorRgba" />
                  <clearDepth dataType="Float">1</clearDepth>
                  <clearFlags dataType="Enum" type="Duality.Drawing.ClearFlag" name="None" value="0" />
                  <input />
                  <matrixMode dataType="Enum" type="Duality.Drawing.RenderMatrix" name="OrthoScreen" value="1" />
                  <output dataType="Struct" type="Duality.ContentRef`1[[Duality.Resources.RenderTarget]]" />
                  <visibilityMask dataType="Enum" type="Duality.Drawing.VisibilityFlag" name="All" value="4294967295" />
                </item>
              </_items>
              <_size dataType="Int">2</_size>
              <_version dataType="Int">2</_version>
            </passes>
            <perspective dataType="Enum" type="Duality.Drawing.PerspectiveMode" name="Parallax" value="1" />
            <visibilityMask dataType="Enum" type="Duality.Drawing.VisibilityFlag" name="All" value="4294967295" />
          </item>
          <item dataType="Struct" type="Duality.Components.SoundListener" id="1605990315">
            <active dataType="Bool">true</active>
            <gameobj dataType="ObjectRef">952508944</gameobj>
          </item>
        </_items>
        <_size dataType="Int">3</_size>
        <_version dataType="Int">3</_version>
      </compList>
      <compMap dataType="Struct" type="System.Collections.Generic.Dictionary`2[[System.Type],[Duality.Component]]" id="1446336154" surrogate="true">
        <header />
        <body>
          <keys dataType="Array" type="System.Object[]" id="2049281540">
            <item dataType="Type" id="3768492868" value="Duality.Components.Transform" />
            <item dataType="Type" id="212268694" value="Duality.Components.Camera" />
            <item dataType="Type" id="3874939648" value="Duality.Components.SoundListener" />
          </keys>
          <values dataType="Array" type="System.Object[]" id="3009513366">
            <item dataType="ObjectRef">3312823876</item>
            <item dataType="ObjectRef">1489784751</item>
            <item dataType="ObjectRef">1605990315</item>
          </values>
        </body>
      </compMap>
      <compTransform dataType="ObjectRef">3312823876</compTransform>
      <identifier dataType="Struct" type="System.Guid" surrogate="true">
        <header>
          <data dataType="Array" type="System.Byte[]" id="132019904">oGrszipo1UixfZ4Q6euAZQ==</data>
        </header>
        <body />
      </identifier>
      <initState dataType="Enum" type="Duality.InitState" name="Initialized" value="1" />
      <name dataType="String">MainCamera</name>
      <parent />
      <prefabLink />
    </item>
    <item dataType="Struct" type="Duality.GameObject" id="1894277629">
      <active dataType="Bool">true</active>
      <children />
      <compList dataType="Struct" type="System.Collections.Generic.List`1[[Duality.Component]]" id="1722615887">
        <_items dataType="Array" type="Duality.Component[]" id="2894684718" length="4">
          <item dataType="Struct" type="Duality.Components.Transform" id="4254592561">
            <active dataType="Bool">true</active>
            <angle dataType="Float">0</angle>
            <angleAbs dataType="Float">0</angleAbs>
            <angleVel dataType="Float">0</angleVel>
            <angleVelAbs dataType="Float">0</angleVelAbs>
            <deriveAngle dataType="Bool">true</deriveAngle>
            <gameobj dataType="ObjectRef">1894277629</gameobj>
            <ignoreParent dataType="Bool">true</ignoreParent>
            <parentTransform />
            <pos dataType="Struct" type="Duality.Vector3">
              <X dataType="Float">512</X>
              <Y dataType="Float">512</Y>
              <Z dataType="Float">0</Z>
            </pos>
            <posAbs dataType="Struct" type="Duality.Vector3">
              <X dataType="Float">512</X>
              <Y dataType="Float">512</Y>
              <Z dataType="Float">0</Z>
            </posAbs>
            <scale dataType="Float">1</scale>
            <scaleAbs dataType="Float">1</scaleAbs>
            <vel dataType="Struct" type="Duality.Vector3">
              <X dataType="Float">0</X>
              <Y dataType="Float">25.979002</Y>
              <Z dataType="Float">0</Z>
            </vel>
            <velAbs dataType="Struct" type="Duality.Vector3">
              <X dataType="Float">0</X>
              <Y dataType="Float">25.979002</Y>
              <Z dataType="Float">0</Z>
            </velAbs>
          </item>
          <item dataType="Struct" type="Duality.Components.Renderers.SpriteRenderer" id="3536444197">
            <active dataType="Bool">true</active>
            <colorTint dataType="Struct" type="Duality.Drawing.ColorRgba">
              <A dataType="Byte">255</A>
              <B dataType="Byte">255</B>
              <G dataType="Byte">255</G>
              <R dataType="Byte">255</R>
            </colorTint>
            <customMat />
            <flipMode dataType="Enum" type="Duality.Components.Renderers.SpriteRenderer+FlipMode" name="None" value="0" />
            <gameobj dataType="ObjectRef">1894277629</gameobj>
            <offset dataType="Int">0</offset>
            <pixelGrid dataType="Bool">false</pixelGrid>
            <rect dataType="Struct" type="Duality.Rect">
              <H dataType="Float">38</H>
              <W dataType="Float">43</W>
              <X dataType="Float">-21.5</X>
              <Y dataType="Float">-19</Y>
            </rect>
            <rectMode dataType="Enum" type="Duality.Components.Renderers.SpriteRenderer+UVMode" name="Stretch" value="0" />
            <sharedMat dataType="Struct" type="Duality.ContentRef`1[[Duality.Resources.Material]]">
              <contentPath dataType="String">Data\ShipOne.Material.res</contentPath>
            </sharedMat>
            <visibilityGroup dataType="Enum" type="Duality.Drawing.VisibilityFlag" name="Group0" value="1" />
          </item>
          <item dataType="Struct" type="Duality.Components.Physics.RigidBody" id="662086857">
            <active dataType="Bool">true</active>
            <angularDamp dataType="Float">0.3</angularDamp>
            <angularVel dataType="Float">0</angularVel>
            <bodyType dataType="Enum" type="Duality.Components.Physics.BodyType" name="Dynamic" value="1" />
            <colCat dataType="Enum" type="Duality.Components.Physics.CollisionCategory" name="Cat1" value="1" />
            <colFilter />
            <colWith dataType="Enum" type="Duality.Components.Physics.CollisionCategory" name="All" value="2147483647" />
            <continous dataType="Bool">false</continous>
            <explicitInertia dataType="Float">0</explicitInertia>
            <explicitMass dataType="Float">0</explicitMass>
            <fixedAngle dataType="Bool">false</fixedAngle>
            <gameobj dataType="ObjectRef">1894277629</gameobj>
            <ignoreGravity dataType="Bool">false</ignoreGravity>
            <joints />
            <linearDamp dataType="Float">0.3</linearDamp>
            <linearVel dataType="Struct" type="Duality.Vector2">
              <X dataType="Float">0</X>
              <Y dataType="Float">25.99761</Y>
            </linearVel>
            <revolutions dataType="Float">0</revolutions>
            <shapes dataType="Struct" type="System.Collections.Generic.List`1[[Duality.Components.Physics.ShapeInfo]]" id="1427507129">
              <_items dataType="Array" type="Duality.Components.Physics.ShapeInfo[]" id="4256762062" length="4">
                <item dataType="Struct" type="Duality.Components.Physics.PolyShapeInfo" id="1210007504">
                  <density dataType="Float">1</density>
                  <friction dataType="Float">0.3</friction>
                  <parent dataType="ObjectRef">662086857</parent>
                  <restitution dataType="Float">0.3</restitution>
                  <sensor dataType="Bool">false</sensor>
                  <vertices dataType="Array" type="Duality.Vector2[]" id="1773996732">
                    <item dataType="Struct" type="Duality.Vector2">
                      <X dataType="Float">0.04522705</X>
                      <Y dataType="Float">-18.0596313</Y>
                    </item>
                    <item dataType="Struct" type="Duality.Vector2">
                      <X dataType="Float">-7.65161133</X>
                      <Y dataType="Float">16.9258423</Y>
                    </item>
                    <item dataType="Struct" type="Duality.Vector2">
                      <X dataType="Float">7.916931</X>
                      <Y dataType="Float">17.0133057</Y>
                    </item>
                  </vertices>
                </item>
                <item dataType="Struct" type="Duality.Components.Physics.PolyShapeInfo" id="3043230318">
                  <density dataType="Float">1</density>
                  <friction dataType="Float">0.3</friction>
                  <parent dataType="ObjectRef">662086857</parent>
                  <restitution dataType="Float">0.3</restitution>
                  <sensor dataType="Bool">false</sensor>
                  <vertices dataType="Array" type="Duality.Vector2[]" id="1806043298">
                    <item dataType="Struct" type="Duality.Vector2">
                      <X dataType="Float">8.354248</X>
                      <Y dataType="Float">16.3135986</Y>
                    </item>
                    <item dataType="Struct" type="Duality.Vector2">
                      <X dataType="Float">21.036499</X>
                      <Y dataType="Float">7.829651</Y>
                    </item>
                    <item dataType="Struct" type="Duality.Vector2">
                      <X dataType="Float">20.1618652</X>
                      <Y dataType="Float">4.418518</Y>
                    </item>
                    <item dataType="Struct" type="Duality.Vector2">
                      <X dataType="Float">4.94317627</X>
                      <Y dataType="Float">1.88208008</Y>
                    </item>
                  </vertices>
                </item>
                <item dataType="Struct" type="Duality.Components.Physics.PolyShapeInfo" id="321990572">
                  <density dataType="Float">1</density>
                  <friction dataType="Float">0.3</friction>
                  <parent dataType="ObjectRef">662086857</parent>
                  <restitution dataType="Float">0.3</restitution>
                  <sensor dataType="Bool">false</sensor>
                  <vertices dataType="Array" type="Duality.Vector2[]" id="2124705144">
                    <item dataType="Struct" type="Duality.Vector2">
                      <X dataType="Float">-20.158905</X>
                      <Y dataType="Float">5.118225</Y>
                    </item>
                    <item dataType="Struct" type="Duality.Vector2">
                      <X dataType="Float">-20.0714417</X>
                      <Y dataType="Float">8.266968</Y>
                    </item>
                    <item dataType="Struct" type="Duality.Vector2">
                      <X dataType="Float">-8.263855</X>
                      <Y dataType="Float">16.5759888</Y>
                    </item>
                    <item dataType="Struct" type="Duality.Vector2">
                      <X dataType="Float">-5.02767944</X>
                      <Y dataType="Float">2.05700684</Y>
                    </item>
                  </vertices>
                </item>
              </_items>
              <_size dataType="Int">3</_size>
              <_version dataType="Int">17</_version>
            </shapes>
          </item>
        </_items>
        <_size dataType="Int">3</_size>
        <_version dataType="Int">3</_version>
      </compList>
      <compMap dataType="Struct" type="System.Collections.Generic.Dictionary`2[[System.Type],[Duality.Component]]" id="1223804000" surrogate="true">
        <header />
        <body>
          <keys dataType="Array" type="System.Object[]" id="3719644517">
            <item dataType="ObjectRef">3768492868</item>
            <item dataType="Type" id="3076598678" value="Duality.Components.Renderers.SpriteRenderer" />
            <item dataType="Type" id="2618775258" value="Duality.Components.Physics.RigidBody" />
          </keys>
          <values dataType="Array" type="System.Object[]" id="1936348776">
            <item dataType="ObjectRef">4254592561</item>
            <item dataType="ObjectRef">3536444197</item>
            <item dataType="ObjectRef">662086857</item>
          </values>
        </body>
      </compMap>
      <compTransform dataType="ObjectRef">4254592561</compTransform>
      <identifier dataType="Struct" type="System.Guid" surrogate="true">
        <header>
          <data dataType="Array" type="System.Byte[]" id="3494173359">LSxoM4AawE2U71m8cxLbEA==</data>
        </header>
        <body />
      </identifier>
      <initState dataType="Enum" type="Duality.InitState" name="Initialized" value="1" />
      <name dataType="String">ShipOne</name>
      <parent />
      <prefabLink />
    </item>
    <item dataType="Struct" type="Duality.GameObject" id="1336220584">
      <active dataType="Bool">true</active>
      <children />
      <compList dataType="Struct" type="System.Collections.Generic.List`1[[Duality.Component]]" id="33413486">
        <_items dataType="Array" type="Duality.Component[]" id="2805868624" length="4">
          <item dataType="Struct" type="Duality.Components.Transform" id="3696535516">
            <active dataType="Bool">true</active>
            <angle dataType="Float">0</angle>
            <angleAbs dataType="Float">0</angleAbs>
            <angleVel dataType="Float">0</angleVel>
            <angleVelAbs dataType="Float">0</angleVelAbs>
            <deriveAngle dataType="Bool">true</deriveAngle>
            <gameobj dataType="ObjectRef">1336220584</gameobj>
            <ignoreParent dataType="Bool">false</ignoreParent>
            <parentTransform />
            <pos dataType="Struct" type="Duality.Vector3">
              <X dataType="Float">512</X>
              <Y dataType="Float">513</Y>
              <Z dataType="Float">9500</Z>
            </pos>
            <posAbs dataType="Struct" type="Duality.Vector3">
              <X dataType="Float">512</X>
              <Y dataType="Float">513</Y>
              <Z dataType="Float">9500</Z>
            </posAbs>
            <scale dataType="Float">25</scale>
            <scaleAbs dataType="Float">25</scaleAbs>
            <vel dataType="Struct" type="Duality.Vector3" />
            <velAbs dataType="Struct" type="Duality.Vector3" />
          </item>
          <item dataType="Struct" type="Duality.Components.Renderers.SpriteRenderer" id="2978387152">
            <active dataType="Bool">true</active>
            <colorTint dataType="Struct" type="Duality.Drawing.ColorRgba">
              <A dataType="Byte">255</A>
              <B dataType="Byte">255</B>
              <G dataType="Byte">255</G>
              <R dataType="Byte">255</R>
            </colorTint>
            <customMat />
            <flipMode dataType="Enum" type="Duality.Components.Renderers.SpriteRenderer+FlipMode" name="None" value="0" />
            <gameobj dataType="ObjectRef">1336220584</gameobj>
            <offset dataType="Int">0</offset>
            <pixelGrid dataType="Bool">false</pixelGrid>
            <rect dataType="Struct" type="Duality.Rect">
              <H dataType="Float">1024</H>
              <W dataType="Float">1024</W>
              <X dataType="Float">-512</X>
              <Y dataType="Float">-512</Y>
            </rect>
            <rectMode dataType="Enum" type="Duality.Components.Renderers.SpriteRenderer+UVMode" name="Stretch" value="0" />
            <sharedMat dataType="Struct" type="Duality.ContentRef`1[[Duality.Resources.Material]]">
              <contentPath dataType="String">Data\SpaceBg.Material.res</contentPath>
            </sharedMat>
            <visibilityGroup dataType="Enum" type="Duality.Drawing.VisibilityFlag" name="Group0" value="1" />
          </item>
        </_items>
        <_size dataType="Int">2</_size>
        <_version dataType="Int">2</_version>
      </compList>
      <compMap dataType="Struct" type="System.Collections.Generic.Dictionary`2[[System.Type],[Duality.Component]]" id="3786196426" surrogate="true">
        <header />
        <body>
          <keys dataType="Array" type="System.Object[]" id="1324375276">
            <item dataType="ObjectRef">3768492868</item>
            <item dataType="ObjectRef">3076598678</item>
          </keys>
          <values dataType="Array" type="System.Object[]" id="2003505462">
            <item dataType="ObjectRef">3696535516</item>
            <item dataType="ObjectRef">2978387152</item>
          </values>
        </body>
      </compMap>
      <compTransform dataType="ObjectRef">3696535516</compTransform>
      <identifier dataType="Struct" type="System.Guid" surrogate="true">
        <header>
          <data dataType="Array" type="System.Byte[]" id="2848075192">glX4Ml18eE6cZAHGSLzeUg==</data>
        </header>
        <body />
      </identifier>
      <initState dataType="Enum" type="Duality.InitState" name="Initialized" value="1" />
      <name dataType="String">SpaceBg</name>
      <parent />
      <prefabLink />
    </item>
  </serializeObj>
  <visibilityStrategy dataType="Struct" type="Duality.Components.DefaultRendererVisibilityStrategy" id="2035693768" />
</root>
<!-- XmlFormatterBase Document Separator -->
